…
First, let's extract the week day using the weekdays() function, and create two new columns, the weekday which will contain the exact day of the week, and the weekday_weekend, which will state whether it's a weekday or weekend.


``` r
weekend_data <- new_dataset
weekend_data$weekday <- weekdays(weekend_data$date)
weekend_data$weekday_weekend <- with(weekend_data, ifelse(weekday %in% c("Saturday", "Sunday"), 'weekend', 'weekday'))

weekend_data
```

```
## # A tibble: 17,568 × 5
## # Groups:   interval [288]
##     steps date       interval weekday weekday_weekend
##     <dbl> <date>        <int> <chr>   <chr>          
##  1 1.72   2012-10-01        0 Monday  weekday        
##  2 0.340  2012-10-01        5 Monday  weekday        
##  3 0.132  2012-10-01       10 Monday  weekday        
##  4 0.151  2012-10-01       15 Monday  weekday        
##  5 0.0755 2012-10-01       20 Monday  weekday        
##  6 2.09   2012-10-01       25 Monday  weekday        
##  7 0.528  2012-10-01       30 Monday  weekday        
##  8 0.868  2012-10-01       35 Monday  weekday        
##  9 0      2012-10-01       40 Monday  weekday        
## 10 1.47   2012-10-01       45 Monday  weekday        
## # … with 17,558 more rows
```
…
